[gd_scene load_steps=3 format=2]

[ext_resource path="res://Entities/Enemy.gd" type="Script" id=1]
[ext_resource path="res://Enemies!/Bio/paper.png" type="Texture" id=2]

[node name="1" type="KinematicBody2D" groups=[
"enemys",
]]
collision_layer = 2
collision_mask = 5
script = ExtResource( 1 )

[node name="Anim" type="Sprite" parent="."]
texture = ExtResource( 2 )

[node name="c" type="CollisionPolygon2D" parent="."]
position = Vector2( -31.7455, -32.3208 )
polygon = PoolVector2Array( 2, 54, 4, 38, 8, 14, 12, 4, 14, 2, 16, 1, 52, 1, 55, 2, 57, 4, 59, 10, 60.8313, 63.9727, 58, 65, 4, 65, 1.57495, 64.1567 )

[node name="hitbox" type="Area2D" parent="." groups=[
"enemy_hitbox",
]]

[node name="d" type="CollisionPolygon2D" parent="hitbox"]
position = Vector2( -32.9568, -33.6019 )
scale = Vector2( 1.03882, 1.03882 )
polygon = PoolVector2Array( 2, 54, 4, 38, 8, 14, 12, 4, 14, 2, 16, 1, 52, 1, 55, 2, 57, 4, 59, 10, 60.8313, 63.9727, 58, 65, 4, 65, 1.57495, 64.1567 )
