[gd_scene load_steps=3 format=2]

[ext_resource path="res://weapons/bullet/bullet_spawner.gd" type="Script" id=1]
[ext_resource path="res://weapons/bullet/Bullet.tscn" type="PackedScene" id=2]

[node name="BulletSpawner" type="Node2D" index="0"]

script = ExtResource( 1 )
_sections_unfolded = [ "Transform" ]
Bullet = ExtResource( 2 )

[node name="CooldownTimer" type="Timer" parent="." index="0"]

process_mode = 0
wait_time = 0.1
one_shot = true
autostart = false

[connection signal="timeout" from="CooldownTimer" to="." method="_on_CooldownTimer_timeout"]


