[gd_scene load_steps=3 format=2]

[ext_resource path="res://To_Transfer/GUI.gd" type="Script" id=1]
[ext_resource path="res://UI/Bars.tscn" type="PackedScene" id=2]

[node name="GUI" type="MarginContainer"]
margin_left = 65.9933
margin_top = 112.993
margin_right = 182.993
margin_bottom = 244.993
script = ExtResource( 1 )

[node name="VBoxContainer" type="VBoxContainer" parent="." instance=ExtResource( 2 )]
margin_right = 117.0
margin_bottom = 132.0
